{
  "budgets": [
    {
      "name": "Fixed", 
      "items": [
        {
          "name": "Rent",
          "amount": 450
        },
        {
          "name": "Phone",
          "amount": 40
        },
        {
          "name": "Car Payment",
          "amount": 320
        }
      ]
    }
  ]
}